reading from file ssh-ping-packets.pcap, link-type EN10MB (Ethernet)
22:53:58.320680 IP 10.0.2.15 > 10.0.2.4: ICMP echo request, id 9219, seq 31, length 64
	0x0000:  4500 0054 1c5e 4000 4001 0639 0a00 020f  E..T.^@.@..9....
	0x0010:  0a00 0204 0800 e978 2403 001f ae00 4960  .......x$.....I`
	0x0020:  0000 0000 3031 0400 0000 0000 1011 1213  ....01..........
	0x0030:  1415 1617 1819 1a1b 1c1d 1e1f 2021 2223  .............!"#
	0x0040:  2425 2627 2829 2a2b 2c2d 2e2f 3031 3233  $%&'()*+,-./0123
	0x0050:  3435 3637                                4567
22:53:58.320704 IP 10.0.2.4 > 10.0.2.15: ICMP echo reply, id 9219, seq 31, length 64
	0x0000:  4500 0054 5733 0000 4001 0b64 0a00 0204  E..TW3..@..d....
	0x0010:  0a00 020f 0000 f178 2403 001f ae00 4960  .......x$.....I`
	0x0020:  0000 0000 3031 0400 0000 0000 1011 1213  ....01..........
	0x0030:  1415 1617 1819 1a1b 1c1d 1e1f 2021 2223  .............!"#
	0x0040:  2425 2627 2829 2a2b 2c2d 2e2f 3031 3233  $%&'()*+,-./0123
	0x0050:  3435 3637                                4567
22:53:59.326505 IP 10.0.2.15 > 10.0.2.4: ICMP echo request, id 9219, seq 32, length 64
	0x0000:  4500 0054 1c8a 4000 4001 060d 0a00 020f  E..T..@.@.......
	0x0010:  0a00 0204 0800 7961 2403 0020 af00 4960  ......ya$.....I`
	0x0020:  0000 0000 9f47 0400 0000 0000 1011 1213  .....G..........
	0x0030:  1415 1617 1819 1a1b 1c1d 1e1f 2021 2223  .............!"#
	0x0040:  2425 2627 2829 2a2b 2c2d 2e2f 3031 3233  $%&'()*+,-./0123
	0x0050:  3435 3637                                4567
22:53:59.326548 IP 10.0.2.4 > 10.0.2.15: ICMP echo reply, id 9219, seq 32, length 64
	0x0000:  4500 0054 57a5 0000 4001 0af2 0a00 0204  E..TW...@.......
	0x0010:  0a00 020f 0000 8161 2403 0020 af00 4960  .......a$.....I`
	0x0020:  0000 0000 9f47 0400 0000 0000 1011 1213  .....G..........
	0x0030:  1415 1617 1819 1a1b 1c1d 1e1f 2021 2223  .............!"#
	0x0040:  2425 2627 2829 2a2b 2c2d 2e2f 3031 3233  $%&'()*+,-./0123
	0x0050:  3435 3637                                4567
22:54:00.327842 IP 10.0.2.15 > 10.0.2.4: ICMP echo request, id 9219, seq 33, length 64
	0x0000:  4500 0054 1cf6 4000 4001 05a1 0a00 020f  E..T..@.@.......
	0x0010:  0a00 0204 0800 e35a 2403 0021 b000 4960  .......Z$..!..I`
	0x0020:  0000 0000 344d 0400 0000 0000 1011 1213  ....4M..........
	0x0030:  1415 1617 1819 1a1b 1c1d 1e1f 2021 2223  .............!"#
	0x0040:  2425 2627 2829 2a2b 2c2d 2e2f 3031 3233  $%&'()*+,-./0123
	0x0050:  3435 3637                                4567
22:54:00.327880 IP 10.0.2.4 > 10.0.2.15: ICMP echo reply, id 9219, seq 33, length 64
	0x0000:  4500 0054 57bf 0000 4001 0ad8 0a00 0204  E..TW...@.......
	0x0010:  0a00 020f 0000 eb5a 2403 0021 b000 4960  .......Z$..!..I`
	0x0020:  0000 0000 344d 0400 0000 0000 1011 1213  ....4M..........
	0x0030:  1415 1617 1819 1a1b 1c1d 1e1f 2021 2223  .............!"#
	0x0040:  2425 2627 2829 2a2b 2c2d 2e2f 3031 3233  $%&'()*+,-./0123
	0x0050:  3435 3637                                4567
22:54:01.342085 IP 10.0.2.15 > 10.0.2.4: ICMP echo request, id 9219, seq 34, length 64
	0x0000:  4500 0054 1d98 4000 4001 04ff 0a00 020f  E..T..@.@.......
	0x0010:  0a00 0204 0800 3822 2403 0022 b100 4960  ......8"$.."..I`
	0x0020:  0000 0000 de84 0400 0000 0000 1011 1213  ................
	0x0030:  1415 1617 1819 1a1b 1c1d 1e1f 2021 2223  .............!"#
	0x0040:  2425 2627 2829 2a2b 2c2d 2e2f 3031 3233  $%&'()*+,-./0123
	0x0050:  3435 3637                                4567
22:54:01.342119 IP 10.0.2.4 > 10.0.2.15: ICMP echo reply, id 9219, seq 34, length 64
	0x0000:  4500 0054 57e0 0000 4001 0ab7 0a00 0204  E..TW...@.......
	0x0010:  0a00 020f 0000 4022 2403 0022 b100 4960  ......@"$.."..I`
	0x0020:  0000 0000 de84 0400 0000 0000 1011 1213  ................
	0x0030:  1415 1617 1819 1a1b 1c1d 1e1f 2021 2223  .............!"#
	0x0040:  2425 2627 2829 2a2b 2c2d 2e2f 3031 3233  $%&'()*+,-./0123
	0x0050:  3435 3637                                4567
22:54:02.366283 IP 10.0.2.15 > 10.0.2.4: ICMP echo request, id 9219, seq 35, length 64
	0x0000:  4500 0054 1e74 4000 4001 0423 0a00 020f  E..T.t@.@..#....
	0x0010:  0a00 0204 0800 16c3 2403 0023 b200 4960  ........$..#..I`
	0x0020:  0000 0000 fee2 0400 0000 0000 1011 1213  ................
	0x0030:  1415 1617 1819 1a1b 1c1d 1e1f 2021 2223  .............!"#
	0x0040:  2425 2627 2829 2a2b 2c2d 2e2f 3031 3233  $%&'()*+,-./0123
	0x0050:  3435 3637                                4567
22:54:02.366322 IP 10.0.2.4 > 10.0.2.15: ICMP echo reply, id 9219, seq 35, length 64
	0x0000:  4500 0054 57e1 0000 4001 0ab6 0a00 0204  E..TW...@.......
	0x0010:  0a00 020f 0000 1ec3 2403 0023 b200 4960  ........$..#..I`
	0x0020:  0000 0000 fee2 0400 0000 0000 1011 1213  ................
	0x0030:  1415 1617 1819 1a1b 1c1d 1e1f 2021 2223  .............!"#
	0x0040:  2425 2627 2829 2a2b 2c2d 2e2f 3031 3233  $%&'()*+,-./0123
	0x0050:  3435 3637                                4567
22:54:03.390505 IP 10.0.2.15 > 10.0.2.4: ICMP echo request, id 9219, seq 36, length 64
	0x0000:  4500 0054 1f25 4000 4001 0372 0a00 020f  E..T.%@.@..r....
	0x0010:  0a00 0204 0800 a863 2403 0024 b300 4960  .......c$..$..I`
	0x0020:  0000 0000 6b41 0500 0000 0000 1011 1213  ....kA..........
	0x0030:  1415 1617 1819 1a1b 1c1d 1e1f 2021 2223  .............!"#
	0x0040:  2425 2627 2829 2a2b 2c2d 2e2f 3031 3233  $%&'()*+,-./0123
	0x0050:  3435 3637                                4567
22:54:03.390545 IP 10.0.2.4 > 10.0.2.15: ICMP echo reply, id 9219, seq 36, length 64
	0x0000:  4500 0054 588f 0000 4001 0a08 0a00 0204  E..TX...@.......
	0x0010:  0a00 020f 0000 b063 2403 0024 b300 4960  .......c$..$..I`
	0x0020:  0000 0000 6b41 0500 0000 0000 1011 1213  ....kA..........
	0x0030:  1415 1617 1819 1a1b 1c1d 1e1f 2021 2223  .............!"#
	0x0040:  2425 2627 2829 2a2b 2c2d 2e2f 3031 3233  $%&'()*+,-./0123
	0x0050:  3435 3637                                4567
22:54:04.391536 IP 10.0.2.15 > 10.0.2.4: ICMP echo request, id 9219, seq 37, length 64
	0x0000:  4500 0054 1ffb 4000 4001 029c 0a00 020f  E..T..@.@.......
	0x0010:  0a00 0204 0800 935d 2403 0025 b400 4960  .......]$..%..I`
	0x0020:  0000 0000 7f46 0500 0000 0000 1011 1213  .....F..........
	0x0030:  1415 1617 1819 1a1b 1c1d 1e1f 2021 2223  .............!"#
	0x0040:  2425 2627 2829 2a2b 2c2d 2e2f 3031 3233  $%&'()*+,-./0123
	0x0050:  3435 3637                                4567
22:54:04.391557 IP 10.0.2.4 > 10.0.2.15: ICMP echo reply, id 9219, seq 37, length 64
	0x0000:  4500 0054 5907 0000 4001 0990 0a00 0204  E..TY...@.......
	0x0010:  0a00 020f 0000 9b5d 2403 0025 b400 4960  .......]$..%..I`
	0x0020:  0000 0000 7f46 0500 0000 0000 1011 1213  .....F..........
	0x0030:  1415 1617 1819 1a1b 1c1d 1e1f 2021 2223  .............!"#
	0x0040:  2425 2627 2829 2a2b 2c2d 2e2f 3031 3233  $%&'()*+,-./0123
	0x0050:  3435 3637